Midterm.utf8
…
On average, how much a 20 year-old male white get charged for staying 1 day?

df1 %>% 
  filter(sex=='1', age==20, raceethn=='1') %>%
  group_by(los) %>% 
  summarise(mean(tot))

## `summarise()` ungrouping output (override with `.groups` argument)

## # A tibble: 23 x 2
##      los `mean(tot)`
##    <dbl>       <dbl>
##  1     0      16350.
##  2     1      15320.
##  3     2      16970.
##  4     3      19682.
##  5     4      19351.
##  6     5      22237.
##  7     6      22549.
##  8     7      23893.
##  9     8      31584.
## 10     9      32680.
## # ... with 13 more rows
…
